name: Recipes
description: |-

  APIs for managing recipes with role-based access control
endpoints:
  -
    httpMethods:
      - GET
    uri: api/v1/recipes
    metadata:
      groupName: Recipes
      groupDescription: |-

        APIs for managing recipes with role-based access control
      subgroup: ''
      subgroupDescription: ''
      title: 'List recipes'
      description: |-
        Get a paginated list of recipes with role-based filtering.
        - Owner: sees only own recipes
        - Sub-admin: sees all recipes (read-only)
        - Admin: sees all recipes (full access)
      authenticated: true
      deprecated: false
      custom: []
    headers:
      Content-Type: application/json
      Accept: application/json
    urlParameters: []
    cleanUrlParameters: []
    queryParameters:
      search:
        name: search
        description: 'Search term to filter recipes by name or description.'
        required: false
        example: pasta
        type: string
        enumValues: []
        exampleWasSpecified: true
        nullable: false
        custom: []
      cuisine_type_id:
        name: cuisine_type_id
        description: 'Filter by cuisine type ID.'
        required: false
        example: 1
        type: integer
        enumValues: []
        exampleWasSpecified: true
        nullable: false
        custom: []
      user_id:
        name: user_id
        description: 'Filter by user ID (admin/sub-admin only).'
        required: false
        example: 2
        type: integer
        enumValues: []
        exampleWasSpecified: true
        nullable: false
        custom: []
      column:
        name: column
        description: 'Field to sort by. Must be one of: id, name, created_at.'
        required: false
        example: name
        type: string
        enumValues: []
        exampleWasSpecified: true
        nullable: false
        custom: []
      dir:
        name: dir
        description: 'Sort direction. Must be one of: asc, desc.'
        required: false
        example: asc
        type: string
        enumValues: []
        exampleWasSpecified: true
        nullable: false
        custom: []
      length:
        name: length
        description: 'Number of items per page (default: 10).'
        required: false
        example: 15
        type: integer
        enumValues: []
        exampleWasSpecified: true
        nullable: false
        custom: []
    cleanQueryParameters:
      search: pasta
      cuisine_type_id: 1
      user_id: 2
      column: name
      dir: asc
      length: 15
    bodyParameters: []
    cleanBodyParameters: []
    fileParameters: []
    responses:
      -
        status: 200
        content: |-
          {
            "success": true,
            "message": "Success",
            "data": {
              "list": [
                {
                  "id": 1,
                  "name": "Spaghetti Carbonara",
                  "description": "Classic Italian pasta dish",
                  "ingredients": ["spaghetti", "eggs", "bacon", "parmesan"],
                  "steps": ["Cook pasta", "Mix eggs and cheese", "Combine"],
                  "image": null,
                  "created_at": "2023-01-01 12:00:00",
                  "user": {
                    "id": 1,
                    "name": "John Doe",
                    "email": "john@example.com"
                  },
                  "cuisine_type": {
                    "id": 1,
                    "name": "Italian"
                  },
                  "can_edit": true,
                  "can_delete": true
                }
              ],
              "pagination": {
                "total": 25,
                "count": 10,
                "per_page": 10,
                "current_page": 1,
                "total_pages": 3
              }
            }
          }
        headers: []
        description: success
        custom: []
    responseFields: []
    auth: []
    controller: null
    method: null
    route: null
    custom: []
  -
    httpMethods:
      - POST
    uri: api/v1/recipes
    metadata:
      groupName: Recipes
      groupDescription: |-

        APIs for managing recipes with role-based access control
      subgroup: ''
      subgroupDescription: ''
      title: 'Create recipe'
      description: 'Create a new recipe. Available to owners and admins.'
      authenticated: true
      deprecated: false
      custom: []
    headers:
      Content-Type: multipart/form-data
      Accept: application/json
    urlParameters: []
    cleanUrlParameters: []
    queryParameters: []
    cleanQueryParameters: []
    bodyParameters:
      name:
        name: name
        description: 'The recipe name.'
        required: true
        example: 'Chocolate Cake'
        type: string
        enumValues: []
        exampleWasSpecified: true
        nullable: false
        custom: []
      description:
        name: description
        description: 'Recipe description.'
        required: true
        example: 'Delicious chocolate cake recipe'
        type: string
        enumValues: []
        exampleWasSpecified: true
        nullable: false
        custom: []
      ingredients:
        name: ingredients
        description: 'Array of ingredients.'
        required: true
        example:
          - flour
          - sugar
          - chocolate
        type: 'string[]'
        enumValues: []
        exampleWasSpecified: true
        nullable: false
        custom: []
      steps:
        name: steps
        description: 'Array of cooking steps.'
        required: true
        example:
          - 'Mix ingredients'
          - 'Bake for 30 min'
        type: 'string[]'
        enumValues: []
        exampleWasSpecified: true
        nullable: false
        custom: []
      cuisine_type_id:
        name: cuisine_type_id
        description: 'Cuisine type ID.'
        required: true
        example: 1
        type: integer
        enumValues: []
        exampleWasSpecified: true
        nullable: false
        custom: []
      image:
        name: image
        description: 'Optional recipe image.'
        required: false
        example: null
        type: file
        enumValues: []
        exampleWasSpecified: false
        nullable: true
        custom: []
    cleanBodyParameters:
      name: 'Chocolate Cake'
      description: 'Delicious chocolate cake recipe'
      ingredients:
        - flour
        - sugar
        - chocolate
      steps:
        - 'Mix ingredients'
        - 'Bake for 30 min'
      cuisine_type_id: 1
    fileParameters:
      image: null
    responses:
      -
        status: 201
        content: |-
          {
            "success": true,
            "message": "Recipe created successfully",
            "data": {
              "id": 1,
              "name": "Chocolate Cake",
              "description": "Delicious chocolate cake recipe",
              "ingredients": ["flour", "sugar", "chocolate"],
              "steps": ["Mix ingredients", "Bake for 30 min"],
              "image": null,
              "created_at": "2023-01-01 12:00:00",
              "user": {
                "id": 1,
                "name": "John Doe",
                "email": "john@example.com"
              },
              "cuisine_type": {
                "id": 1,
                "name": "Italian"
              },
              "can_edit": true,
              "can_delete": true
            }
          }
        headers: []
        description: success
        custom: []
    responseFields: []
    auth: []
    controller: null
    method: null
    route: null
    custom: []
  -
    httpMethods:
      - GET
    uri: 'api/v1/recipes/{id}'
    metadata:
      groupName: Recipes
      groupDescription: |-

        APIs for managing recipes with role-based access control
      subgroup: ''
      subgroupDescription: ''
      title: 'Show recipe'
      description: 'Get a specific recipe by ID. Access controlled by role and ownership.'
      authenticated: true
      deprecated: false
      custom: []
    headers:
      Content-Type: application/json
      Accept: application/json
    urlParameters:
      id:
        name: id
        description: 'Recipe ID.'
        required: true
        example: 1
        type: integer
        enumValues: []
        exampleWasSpecified: true
        nullable: false
        custom: []
    cleanUrlParameters:
      id: 1
    queryParameters: []
    cleanQueryParameters: []
    bodyParameters: []
    cleanBodyParameters: []
    fileParameters: []
    responses:
      -
        status: 200
        content: |-
          {
            "success": true,
            "message": "Success",
            "data": {
              "id": 1,
              "name": "Spaghetti Carbonara",
              "description": "Classic Italian pasta dish",
              "ingredients": ["spaghetti", "eggs", "bacon", "parmesan"],
              "steps": ["Cook pasta", "Mix eggs and cheese", "Combine"],
              "image": null,
              "created_at": "2023-01-01 12:00:00",
              "user": {
                "id": 1,
                "name": "John Doe",
                "email": "john@example.com"
              },
              "cuisine_type": {
                "id": 1,
                "name": "Italian"
              },
              "can_edit": true,
              "can_delete": true
            }
          }
        headers: []
        description: success
        custom: []
    responseFields: []
    auth: []
    controller: null
    method: null
    route: null
    custom: []
  -
    httpMethods:
      - PUT
    uri: 'api/v1/recipes/{id}'
    metadata:
      groupName: Recipes
      groupDescription: |-

        APIs for managing recipes with role-based access control
      subgroup: ''
      subgroupDescription: ''
      title: 'Update recipe'
      description: 'Update a recipe. Only recipe owner or admin can update.'
      authenticated: true
      deprecated: false
      custom: []
    headers:
      Content-Type: multipart/form-data
      Accept: application/json
    urlParameters:
      id:
        name: id
        description: 'Recipe ID.'
        required: true
        example: 1
        type: integer
        enumValues: []
        exampleWasSpecified: true
        nullable: false
        custom: []
    cleanUrlParameters:
      id: 1
    queryParameters: []
    cleanQueryParameters: []
    bodyParameters:
      name:
        name: name
        description: 'The recipe name.'
        required: false
        example: 'Updated Chocolate Cake'
        type: string
        enumValues: []
        exampleWasSpecified: true
        nullable: false
        custom: []
      description:
        name: description
        description: 'Recipe description.'
        required: false
        example: 'Updated description'
        type: string
        enumValues: []
        exampleWasSpecified: true
        nullable: false
        custom: []
      ingredients:
        name: ingredients
        description: 'Array of ingredients.'
        required: false
        example:
          - flour
          - sugar
          - chocolate
          - vanilla
        type: 'string[]'
        enumValues: []
        exampleWasSpecified: true
        nullable: false
        custom: []
      steps:
        name: steps
        description: 'Array of cooking steps.'
        required: false
        example:
          - 'Mix dry ingredients'
          - 'Add wet ingredients'
          - 'Bake for 35 min'
        type: 'string[]'
        enumValues: []
        exampleWasSpecified: true
        nullable: false
        custom: []
      cuisine_type_id:
        name: cuisine_type_id
        description: 'Cuisine type ID.'
        required: false
        example: 2
        type: integer
        enumValues: []
        exampleWasSpecified: true
        nullable: false
        custom: []
      image:
        name: image
        description: 'Optional recipe image.'
        required: false
        example: null
        type: file
        enumValues: []
        exampleWasSpecified: false
        nullable: true
        custom: []
    cleanBodyParameters:
      name: 'Updated Chocolate Cake'
      description: 'Updated description'
      ingredients:
        - flour
        - sugar
        - chocolate
        - vanilla
      steps:
        - 'Mix dry ingredients'
        - 'Add wet ingredients'
        - 'Bake for 35 min'
      cuisine_type_id: 2
    fileParameters:
      image: null
    responses:
      -
        status: 200
        content: |-
          {
            "success": true,
            "message": "Recipe updated successfully",
            "data": {
              "id": 1,
              "name": "Updated Chocolate Cake",
              "description": "Updated description",
              "ingredients": ["flour", "sugar", "chocolate", "vanilla"],
              "steps": ["Mix dry ingredients", "Add wet ingredients", "Bake for 35 min"],
              "image": "recipes/updated-image.jpg",
              "created_at": "2023-01-01 12:00:00",
              "updated_at": "2023-01-02 12:00:00",
              "user": {
                "id": 1,
                "name": "John Doe",
                "email": "john@example.com"
              },
              "cuisine_type": {
                "id": 2,
                "name": "French"
              },
              "can_edit": true,
              "can_delete": true
            }
          }
        headers: []
        description: success
        custom: []
    responseFields: []
    auth: []
    controller: null
    method: null
    route: null
    custom: []
  -
    httpMethods:
      - DELETE
    uri: 'api/v1/recipes/{id}'
    metadata:
      groupName: Recipes
      groupDescription: |-

        APIs for managing recipes with role-based access control
      subgroup: ''
      subgroupDescription: ''
      title: 'Delete recipe'
      description: 'Delete a recipe. Only recipe owner or admin can delete.'
      authenticated: true
      deprecated: false
      custom: []
    headers:
      Content-Type: application/json
      Accept: application/json
    urlParameters:
      id:
        name: id
        description: 'Recipe ID.'
        required: true
        example: 1
        type: integer
        enumValues: []
        exampleWasSpecified: true
        nullable: false
        custom: []
    cleanUrlParameters:
      id: 1
    queryParameters: []
    cleanQueryParameters: []
    bodyParameters: []
    cleanBodyParameters: []
    fileParameters: []
    responses:
      -
        status: 200
        content: |-
          {
            "success": true,
            "message": "Recipe deleted successfully",
            "data": null
          }
        headers: []
        description: success
        custom: []
    responseFields: []
    auth: []
    controller: null
    method: null
    route: null
    custom: []
